…
    ## Rows: 35 Columns: 9
    ## ── Column specification ────────────────────────────────────────────────────────
    ## Delimiter: ","
    ## chr (9): Starting_state, First_Event, Distrubtion, Parameters_Estimate, Tota...
    ## 
    ## ℹ Use `spec()` to retrieve the full column specification for this data.
    ## ℹ Specify the column types or set `show_col_types = FALSE` to quiet this message.

``` r
print(test.table)
```

    ## # A tibble: 35 × 9
    ##    Starting_state First_Event Distrubtion      Parameters_Estimate `Total _Prob`
    ##    <chr>          <chr>       <chr>            <chr>               <chr>        
    ##  1 Symptom Onset  Virtual     Log normal       logmean = 1.14, lo… 0.081 (0.08,…
    ##  2 Symptom Onset  Outpatient  Log normal       logmean = 1.28, lo… 0.127 (0.125…
    ##  3 Symptom Onset  Urgent Care Generalized gam… mu = 0.940, sigma … 0.368 (0.364…
    ##  4 Symptom Onset  Emergency   Log normal       logmean = 1.23, lo… 0.289 (0.285…
    ##  5 Symptom Onset  Inpatient   Generalized gam… mu = 1.73, sigma =… 0.034 (0.033…
    ##  6 Symptom Onset  Ventilation NA/No events     <NA>                <NA>         
    ##  7 Symptom Onset  Death       Exponential      rate = 0.125        0 (0, 0.001) 
    ##  8 Positive Test  Virtual     Generalized gam… mu = -2.30, sigma … 0.072 (0.07,…
    ##  9 Positive Test  Outpatient  Log normal       logmean = -1.95, l… 0.122 (0.12,…
    ## 10 Positive Test  Urgent Care Generalized gam… mu = -2.30, sigma … 0.37 (0.366,…
    ## # ℹ 25 more rows
    ## # ℹ 4 more variables: Prob_t_15 <chr>, Median_Time <chr>, `25th` <chr>,
    ## #   `75th` <chr>
…
